module auth

go 1.20

require (
	github.com/auth0/go-jwt-middleware/v2 v2.1.0 // indirect
	github.com/joho/godotenv v1.5.1 // indirect
	github.com/pkg/errors v0.9.1 // indirect
	golang.org/x/crypto v0.0.0-20220518034528-6f7dac969898 // indirect
	gopkg.in/square/go-jose.v2 v2.6.0 // indirect
)
