module module

go 1.19

require (
	github.com/aws/aws-sdk-go-v2 v1.17.4
	github.com/aws/aws-sdk-go-v2/config v1.18.12
	github.com/aws/aws-sdk-go-v2/credentials v1.13.12
	github.com/aws/aws-sdk-go-v2/service/dynamodb v1.18.2
	github.com/aws/aws-sdk-go-v2/service/ec2 v1.85.0
)

require (
	github.com/aws/aws-sdk-go-v2/feature/ec2/imds v1.12.22 // indirect
	github.com/aws/aws-sdk-go-v2/internal/configsources v1.1.28 // indirect
	github.com/aws/aws-sdk-go-v2/internal/endpoints/v2 v2.4.22 // indirect
	github.com/aws/aws-sdk-go-v2/internal/ini v1.3.29 // indirect
	github.com/aws/aws-sdk-go-v2/service/internal/accept-encoding v1.9.11 // indirect
	github.com/aws/aws-sdk-go-v2/service/internal/endpoint-discovery v1.7.22 // indirect
	github.com/aws/aws-sdk-go-v2/service/internal/presigned-url v1.9.22 // indirect
	github.com/aws/aws-sdk-go-v2/service/sso v1.12.1 // indirect
	github.com/aws/aws-sdk-go-v2/service/ssooidc v1.14.1 // indirect
	github.com/aws/aws-sdk-go-v2/service/sts v1.18.3 // indirect
	github.com/aws/smithy-go v1.13.5 // indirect
	github.com/jmespath/go-jmespath v0.4.0 // indirect
)
