module micro

go 1.19

require github.com/go-rod/rod v0.112.2

require (
	github.com/ysmood/goob v0.4.0 // indirect
	github.com/ysmood/gson v0.7.3 // indirect
	github.com/ysmood/leakless v0.8.0 // indirect
)
