module awee

go 1.20

require (
	github.com/cavaliergopher/grab/v3 v3.0.1
	github.com/google/go-github v17.0.0+incompatible
	github.com/spf13/cobra v1.6.1
)

require (
	github.com/google/go-querystring v1.1.0 // indirect
	github.com/inconshreveable/mousetrap v1.0.1 // indirect
	github.com/spf13/pflag v1.0.5 // indirect
)
