module main

go 1.20

require (
	github.com/aws/aws-sdk-go-v2 v1.23.3
	github.com/aws/aws-sdk-go-v2/config v1.25.9
	github.com/aws/aws-sdk-go-v2/credentials v1.16.7
	github.com/aws/aws-sdk-go-v2/service/ec2 v1.138.0
	github.com/aws/aws-sdk-go-v2/service/eks v1.35.0
	github.com/aws/smithy-go v1.18.0
	github.com/stretchr/testify v1.8.4
)

require (
	github.com/aws/aws-sdk-go-v2/feature/ec2/imds v1.14.7 // indirect
	github.com/aws/aws-sdk-go-v2/internal/configsources v1.2.6 // indirect
	github.com/aws/aws-sdk-go-v2/internal/endpoints/v2 v2.5.6 // indirect
	github.com/aws/aws-sdk-go-v2/internal/ini v1.7.1 // indirect
	github.com/aws/aws-sdk-go-v2/service/internal/accept-encoding v1.10.2 // indirect
	github.com/aws/aws-sdk-go-v2/service/internal/presigned-url v1.10.6 // indirect
	github.com/aws/aws-sdk-go-v2/service/sso v1.18.0 // indirect
	github.com/aws/aws-sdk-go-v2/service/ssooidc v1.21.0 // indirect
	github.com/aws/aws-sdk-go-v2/service/sts v1.26.0 // indirect
	github.com/davecgh/go-spew v1.1.1 // indirect
	github.com/jmespath/go-jmespath v0.4.0 // indirect
	github.com/pmezard/go-difflib v1.0.0 // indirect
	gopkg.in/yaml.v3 v3.0.1 // indirect
)
