<svg width="154" height="22" viewBox="0 0 154 22" fill="none" xmlns="http://www.w3.org/2000/svg">
<path d="M39.1868 12.3557H42.6031V13.6386H42.6457C43.2864 12.6813 44.7364 12.0852 46.0195 12.0852C49.6011 12.0852 49.889 14.361 49.889 15.7152V21.7295H46.3705V17.1972C46.3705 15.9159 46.5357 14.6152 44.6103 14.6152C43.2847 14.6152 42.7053 15.5903 42.7053 16.619V21.7295H39.1851V12.3557H39.1868Z" fill="white"/>
<path d="M58.2109 21.728H54.1522L50.5723 12.3557H54.2357L56.2037 18.5499H56.2429L58.2314 12.3557H61.813L58.2109 21.728Z" fill="white"/>
<path d="M65.3313 17.7918C65.3944 19.0747 66.2429 19.9234 67.7338 19.9234C68.5841 19.9234 69.4105 19.5801 69.7428 18.8933H73.0347C72.3923 21.0606 70.0938 22.0001 67.693 22.0001C64.1948 22.0001 61.8145 20.1583 61.8145 17.0159C61.8145 14.144 64.4436 12.0852 67.6095 12.0852C71.4603 12.0852 73.3857 14.6137 73.2187 17.7918H65.3313ZM69.7002 16.0764C69.6388 15.0299 68.7903 14.1618 67.6095 14.1618C66.3673 14.1618 65.5392 14.9393 65.3313 16.0764H69.7002Z" fill="white"/>
<path d="M77.2964 18.6406C77.2964 19.1104 77.5247 19.4523 77.8774 19.6886C78.208 19.9041 78.6834 20.0141 79.1809 20.0141C79.8642 20.0141 80.8371 19.7614 80.8371 19.0197C80.8371 18.2973 79.7398 18.1545 79.1196 18.0267C76.9045 17.5391 74.1288 17.4856 74.1288 14.9556C74.1288 12.6977 76.9232 12.0837 79.0361 12.0837C81.396 12.0837 83.8582 12.6798 83.9826 15.1177H80.7315C80.7315 14.7208 80.5662 14.4681 80.2748 14.306C79.9852 14.1425 79.5916 14.0712 79.1571 14.0712C78.5777 14.0712 77.6474 14.1247 77.6474 14.7758C77.6474 15.6602 80.0056 15.8223 81.6209 16.13C83.7951 16.509 84.354 17.8825 84.354 18.6585C84.354 21.1691 81.6209 21.9986 79.1997 21.9986C76.6523 21.9986 74.0453 21.2583 73.9414 18.6391H77.2964V18.6406Z" fill="white"/>
<path d="M92.1394 14.3432H89.9652V18.6049C89.9652 19.3452 90.4627 19.5072 91.2278 19.5072C91.5175 19.5072 91.8293 19.4716 92.1394 19.4716V21.7295C91.497 21.7474 90.8563 21.8202 90.214 21.8202C87.2117 21.8202 86.4466 21.0621 86.4466 18.5157V14.3432H84.666V12.3557H86.4466V9.51953H89.9652V12.3557H92.1394V14.3432Z" fill="white"/>
<path d="M93.2959 12.3557H96.7123V13.6386H96.7549C97.3972 12.6991 98.5354 12.0852 99.8389 12.0852C101.185 12.0852 102.386 12.4643 102.966 13.6029C103.814 12.6099 104.869 12.0852 106.319 12.0852C109.734 12.0852 110.107 14.3432 110.107 16.1314V21.7295H106.588V16.2221C106.588 15.2098 106.029 14.6152 105.119 14.6152C103.608 14.6152 103.463 15.626 103.463 17.1422V21.7295H99.9429V16.402C99.9429 15.3005 99.5697 14.6152 98.6189 14.6152C97.3563 14.6152 96.8179 15.247 96.8179 17.1616V21.731H93.2976V12.3557H93.2959Z" fill="white"/>
<path d="M114.683 17.7918C114.745 19.0747 115.595 19.9234 117.086 19.9234C117.934 19.9234 118.763 19.5801 119.095 18.8933H122.387C121.743 21.0606 119.444 22.0001 117.043 22.0001C113.545 22.0001 111.163 20.1583 111.163 17.0159C111.163 14.144 113.792 12.0852 116.96 12.0852C120.811 12.0852 122.736 14.6137 122.569 17.7918H114.683ZM119.05 16.0764C118.989 15.0299 118.139 14.1618 116.96 14.1618C115.718 14.1618 114.89 14.9393 114.682 16.0764H119.05Z" fill="white"/>
<path d="M123.914 12.3557H127.33V13.6386H127.371C128.013 12.6813 129.463 12.0852 130.746 12.0852C134.328 12.0852 134.618 14.361 134.618 15.7152V21.7295H131.099V17.1972C131.099 15.9159 131.264 14.6152 129.339 14.6152C128.015 14.6152 127.434 15.5903 127.434 16.619V21.7295H123.914V12.3557Z" fill="white"/>
<path d="M142.835 14.3432H140.663V18.6049C140.663 19.3452 141.159 19.5072 141.926 19.5072C142.215 19.5072 142.527 19.4716 142.837 19.4716V21.7295C142.195 21.7474 141.554 21.8202 140.912 21.8202C137.911 21.8202 137.144 21.0621 137.144 18.5157V14.3432H135.364V12.3557H137.144V9.51953H140.665V12.3557H142.837V14.3432H142.835Z" fill="white"/>
<path d="M146.727 18.6406C146.727 19.1104 146.956 19.4523 147.307 19.6886C147.639 19.9041 148.114 20.0141 148.612 20.0141C149.295 20.0141 150.268 19.7614 150.268 19.0197C150.268 18.2973 149.171 18.1545 148.549 18.0267C146.334 17.5391 143.56 17.4856 143.56 14.9556C143.56 12.6977 146.354 12.0837 148.467 12.0837C150.827 12.0837 153.291 12.6798 153.415 15.1177H150.166C150.166 14.7208 150.001 14.4681 149.709 14.306C149.42 14.1425 149.026 14.0712 148.591 14.0712C148.01 14.0712 147.08 14.1247 147.08 14.7758C147.08 15.6602 149.44 15.8223 151.055 16.13C153.229 16.509 153.788 17.8825 153.788 18.6585C153.788 21.1691 151.055 21.9986 148.634 21.9986C146.088 21.9986 143.48 21.2583 143.377 18.6391H146.727V18.6406Z" fill="white"/>
<path d="M33.4935 5.96533H32.4609V21.7384H33.4935V5.96533Z" fill="white"/>
<path d="M35.5997 2.98193H34.5688V21.7369H35.5997V2.98193Z" fill="white"/>
<path d="M37.7096 0H36.6787V21.7369H37.7096V0Z" fill="white"/>
<path d="M7.47677 6.28184C7.17347 4.93955 5.89213 4.80725 5.36051 4.80725C3.65489 4.80725 3.18291 6.00387 3.03126 6.46765C2.96992 6.65346 2.83361 7.10536 2.83361 7.64941C2.83361 7.76833 2.84894 8.04779 2.91028 8.38076C2.95629 8.63346 3.13861 9.61603 4.03657 10.1467C4.41825 10.386 4.87489 10.4916 5.34517 10.4916C5.5292 10.4916 5.98414 10.4782 6.45783 10.2537C7.15814 9.90738 7.38646 9.34995 7.50914 8.69887H10.295C10.2661 9.21617 10.1127 10.3994 8.9251 11.4206C8.34577 11.9127 7.30979 12.5771 5.37585 12.5771C4.89023 12.5771 3.56459 12.5504 2.34629 11.8606C1.98165 11.6481 1.72095 11.4355 1.60168 11.3285C0.0596369 10.001 0 8.20833 0 7.63752C0 6.38887 0.443017 5.16698 1.40062 4.21117C2.7859 2.8436 4.67383 2.73657 5.36051 2.73657C6.80713 2.73657 8.22308 3.16022 9.21135 4.14576C9.668 4.60955 10.0497 5.24725 10.186 5.85819C10.2167 6.05887 10.232 6.21644 10.232 6.28333H7.47677V6.28184Z" fill="white"/>
<path d="M14.2002 7.30909H15.9671C16.1494 7.29571 16.3181 7.29571 16.4851 7.28233C16.6538 7.25558 17.2007 7.21693 17.4904 6.77841C17.6591 6.52571 17.6591 6.2076 17.6591 6.14071C17.6591 4.89058 16.2738 4.97233 15.9535 4.95747H14.2002V7.30909ZM15.8308 2.96558C16.1205 2.96558 16.4101 2.96558 16.6998 2.97895C17.9317 3.03247 19.029 3.32382 19.7754 4.26774C20.2184 4.83855 20.3854 5.44949 20.3854 6.1526C20.3854 7.90666 19.0444 8.70341 18.3594 8.94274C17.9931 9.07504 17.3541 9.19544 16.4238 9.20733H14.2002V12.3423H11.3989V2.96558H15.8308Z" fill="white"/>
<path d="M24.54 7.32252H26.307C26.4893 7.30914 26.658 7.30914 26.8249 7.29576C26.9936 7.269 27.5406 7.23035 27.8303 6.79184C27.9972 6.53914 27.9972 6.22103 27.9972 6.15414C27.9972 4.90549 26.612 4.98576 26.2916 4.9709H24.54V7.32252ZM26.1689 2.979C26.4586 2.979 26.7483 2.979 27.0379 2.99238C28.2699 3.0459 29.3672 3.33725 30.1135 4.28117C30.5565 4.85198 30.7235 5.46292 30.7235 6.16603C30.7235 7.92008 29.3842 8.71684 28.6993 8.95617C28.3329 9.08846 27.6939 9.20887 26.7636 9.22076H24.54V12.3558H21.7388V2.979H26.1689Z" fill="white"/>
</svg>
