module main

go 1.19

require (
	github.com/aws/aws-sdk-go-v2 v1.17.1
	github.com/aws/aws-sdk-go-v2/config v1.17.10
	github.com/aws/aws-sdk-go-v2/credentials v1.12.23
	github.com/aws/aws-sdk-go-v2/service/backup v1.17.11
	github.com/aws/aws-sdk-go-v2/service/ec2 v1.65.0
	github.com/aws/aws-sdk-go-v2/service/organizations v1.16.15
	github.com/aws/aws-sdk-go-v2/service/sts v1.17.1
	github.com/go-gota/gota v0.12.0
)

require (
	github.com/aws/aws-sdk-go-v2/feature/ec2/imds v1.12.19 // indirect
	github.com/aws/aws-sdk-go-v2/internal/configsources v1.1.25 // indirect
	github.com/aws/aws-sdk-go-v2/internal/endpoints/v2 v2.4.19 // indirect
	github.com/aws/aws-sdk-go-v2/internal/ini v1.3.26 // indirect
	github.com/aws/aws-sdk-go-v2/service/internal/presigned-url v1.9.19 // indirect
	github.com/aws/aws-sdk-go-v2/service/sso v1.11.25 // indirect
	github.com/aws/aws-sdk-go-v2/service/ssooidc v1.13.8 // indirect
	github.com/aws/smithy-go v1.13.4 // indirect
	github.com/jmespath/go-jmespath v0.4.0 // indirect
	golang.org/x/net v0.0.0-20210423184538-5f58ad60dda6 // indirect
	gonum.org/v1/gonum v0.9.1 // indirect
)
